1   thirstea              tea
2   NiKola                Nici
3   Dr Mapper             Dana Cief         by tea, based on Dana's idea
4   Pepsni                AkAvery
5   Flawol Delight        Ossy              remastered by tea
6   inter mango           tea               based on iD-Logo
7   CITRA                 tea               based on Kims fursona
8   mixbase               Blixibon          remastered by tea
9   Soda Sense            Dylan Schwartz    remastered by tea
10  Tic Tac Milk          Tacarish
11  no more soda in hell  Coralilac
12  Bepis                 Allison Ghost     by tea, based on Allison's Design
13  medium haze           Noon              by tea, based on Noon's Design
14  melotea               melodyREDACTED    remastered by tea
15  frog drink            tea               based on Joshie's website
16  black hole            Matt Hustead      remastered by tea
17  pink sauce            Weyland
18  FarlOS                Farly
19  Argon Water           PercyVader
20  Pandamilla            Pandamilla
21  T-Tea                 Maestra Fénix
22  Nikers                Niker107
23  Blackcut              Ryan Tauscher
24  Crab Juice            SabrielNovak
25  Red Letter            Salamancer        remastered by tea