"VertexLitGeneric"
{
	"$basetexture" "models/props_instabilitea/vinyl"
    "$envmap" "eincamillentee/instabilitea/cubemap"
    "$envmapmask" "models/props_instabilitea/vinyl_env"
	"$envmaptint" "[0.2 0.15 0.1]"
}
